com\KMSJ\Scadular\com\app\config\entity\DealTransaction.class
com\KMSJ\Scadular\com\Remmitance\service\impl\service.class
com\KMSJ\Scadular\com\tracking\service\ITrackingService.class
com\KMSJ\Scadular\com\Kondor\command\CLR.class
com\KMSJ\Scadular\com\Kondor\service\IKondorService.class
com\KMSJ\Scadular\com\Remmitance\service\IRemService.class
com\KMSJ\Scadular\com\Kondor\controller\KondorController.class
com\KMSJ\Scadular\com\app\config\entity\SchedularTrackingStatus.class
com\KMSJ\Scadular\com\Remmitance\controller\RemController.class
com\KMSJ\Scadular\com\core\enums\ServiceCodeStatusEnum.class
com\KMSJ\Scadular\com\tracking\repo\SchedularTrackingRepo.class
com\KMSJ\Scadular\com\Kondor\repo\DealsRepo.class
com\KMSJ\Scadular\com\Remmitance\repo\TransactionRepo.class
com\KMSJ\Scadular\com\tracking\service\impl\TrackingService.class
com\KMSJ\Scadular\com\app\config\entity\Transaction.class
com\KMSJ\Scadular\com\exception\AggServeResponseExep.class
com\KMSJ\Scadular\com\schedular\SchadularJobRunner.class
com\KMSJ\Scadular\com\command\RunnerCommand.class
com\KMSJ\Scadular\com\Kondor\service\impl\KonderService.class
com\KMSJ\Scadular\com\core\enums\ServiceTypeEnum.class
com\KMSJ\Scadular\ScadularApplication.class
